### [2014/7/30 21:22:3] PROCESS @ OscP5 stopped.
### [2014/7/30 21:22:3] PROCESS @ UdpClient.openSocket udp socket initialized.
### [2014/7/30 21:22:4] PROCESS @ UdpServer.start() new Unicast DatagramSocket created @ port 7400
### [2014/7/30 21:22:4] PROCESS @ UdpServer.run() UdpServer is running @ 7400
### [2014/7/30 21:22:4] INFO @ OscP5 is running. you (192.168.0.110) are listening @ port 7400
Jul 30, 2014 9:22:22 PM com.github.fommil.emokit.Emotiv$2 run
SEVERE: Problem when polling
java.io.IOException: Bad Packet: (0) [-33, 55, -4, 32, 110, 36, -11, 92, 48, -105, -95, 1, -4, -100, -76, -73, 80, -99, 43, -26, -20, 84, -29, 115, -12, -83, -31, -62, -27, 45, -76, -82]
	at com.github.fommil.emokit.EmotivHid.poll(EmotivHid.java:95)
	at com.github.fommil.emokit.Emotiv.poller(Emotiv.java:131)
	at com.github.fommil.emokit.Emotiv.access$100(Emotiv.java:39)
	at com.github.fommil.emokit.Emotiv$2.run(Emotiv.java:110)
	at java.lang.Thread.run(Thread.java:745)

Finished.
[Finished in 36.0s]



### [2014/7/30 21:24:35] PROCESS @ OscP5 stopped.
### [2014/7/30 21:24:35] PROCESS @ UdpClient.openSocket udp socket initialized.
### [2014/7/30 21:24:36] PROCESS @ UdpServer.start() new Unicast DatagramSocket created @ port 7400
### [2014/7/30 21:24:36] PROCESS @ UdpServer.run() UdpServer is running @ 7400
### [2014/7/30 21:24:36] INFO @ OscP5 is running. you (192.168.0.110) are listening @ port 7400
Jul 30, 2014 9:25:25 PM com.github.fommil.emokit.Emotiv$2 run
SEVERE: Problem when polling
java.io.IOException: Bad Packet: (0) [41, 87, -95, 15, -3, 5, -114, -128, 8, -62, 127, -3, 12, -3, 117, 57, 33, -10, -125, -11, 74, 45, 115, 26, -11, -82, 40, 5, 127, 121, 55, -84]
	at com.github.fommil.emokit.EmotivHid.poll(EmotivHid.java:95)
	at com.github.fommil.emokit.Emotiv.poller(Emotiv.java:131)
	at com.github.fommil.emokit.Emotiv.access$100(Emotiv.java:39)
	at com.github.fommil.emokit.Emotiv$2.run(Emotiv.java:110)
	at java.lang.Thread.run(Thread.java:745)

Finished.
[Finished in 58.1s]